Nierfen_raster_to_csv
…
ndvi_long

## # A tibble: 528 × 5
##       id LandUse        S date       ndvi_mean
##    <dbl> <fct>      <dbl> <date>         <dbl>
##  1     0 Bois    1110339. 2015-01-18     0.430
##  2     0 Bois    1110339. 2015-02-03   NaN    
##  3     0 Bois    1110339. 2015-02-12     0.694
##  4     0 Bois    1110339. 2015-02-28     0.639
##  5     0 Bois    1110339. 2015-04-08     0.583
##  6     0 Bois    1110339. 2015-04-24     0.724
##  7     0 Bois    1110339. 2015-05-10     0.797
##  8     0 Bois    1110339. 2015-06-04     0.886
##  9     0 Bois    1110339. 2015-06-11     0.807
## 10     0 Bois    1110339. 2015-07-06     0.872
## # ℹ 518 more rows
…
## Warning: Removed 10 rows containing missing values or values outside the scale range
## (`geom_line()`).
## Removed 58 rows containing missing values or values outside the scale range
## (`geom_point()`).

ndvi_mean_agg <- ndvi_long %>%
  group_by(LandUse, date) %>%
  summarise(
    ndvi_mean = mean(ndvi_mean, na.rm = TRUE),
    Stot_per_LU = sum(S),
    .groups = "drop"
  )
ndvi_mean_agg

## # A tibble: 88 × 4
##    LandUse date       ndvi_mean Stot_per_LU
##    <fct>   <date>         <dbl>       <dbl>
##  1 Culture 2015-01-18    0.498      928095.
##  2 Culture 2015-02-03   -0.0124     928095.
##  3 Culture 2015-02-12    0.547      928095.
##  4 Culture 2015-02-28    0.512      928095.
##  5 Culture 2015-04-08    0.637      928095.
##  6 Culture 2015-04-24    0.755      928095.
##  7 Culture 2015-05-10    0.765      928095.
##  8 Culture 2015-06-04    0.736      928095.
##  9 Culture 2015-06-11    0.753      928095.
## 10 Culture 2015-07-06    0.568      928095.
## # ℹ 78 more rows
…
Interpolate the results

ndvi_mean_agg <-ndvi_mean_agg %>% filter(LandUse != 3) #Get rid of the urban category (LandUse = 3)
ndvi_mean_agg

## # A tibble: 88 × 4
##    LandUse date       ndvi_mean Stot_per_LU
##    <fct>   <date>         <dbl>       <dbl>
##  1 Culture 2015-01-18    0.498      928095.
##  2 Culture 2015-02-03   -0.0124     928095.
##  3 Culture 2015-02-12    0.547      928095.
##  4 Culture 2015-02-28    0.512      928095.
##  5 Culture 2015-04-08    0.637      928095.
##  6 Culture 2015-04-24    0.755      928095.
##  7 Culture 2015-05-10    0.765      928095.
##  8 Culture 2015-06-04    0.736      928095.
##  9 Culture 2015-06-11    0.753      928095.
## 10 Culture 2015-07-06    0.568      928095.
## # ℹ 78 more rows
…
    y_interp <- approx(
      x    = as.numeric(d[ok]),
      y    = y[ok],
      xout = as.numeric(d),
      rule = 2  
    )$y

    .x$ndvi_mean_interp <- y_interp
    .x
  }) %>%
  ungroup()

ndvi_mean_agg_daily

## # A tibble: 1,460 × 5
##    LandUse date       ndvi_mean Stot_per_LU ndvi_mean_interp
##    <fct>   <date>         <dbl>       <dbl>            <dbl>
##  1 Culture 2015-01-01        NA          NA            0.498
##  2 Culture 2015-01-02        NA          NA            0.498
##  3 Culture 2015-01-03        NA          NA            0.498
##  4 Culture 2015-01-04        NA          NA            0.498
##  5 Culture 2015-01-05        NA          NA            0.498
##  6 Culture 2015-01-06        NA          NA            0.498
##  7 Culture 2015-01-07        NA          NA            0.498
##  8 Culture 2015-01-08        NA          NA            0.498
##  9 Culture 2015-01-09        NA          NA            0.498
## 10 Culture 2015-01-10        NA          NA            0.498
## # ℹ 1,450 more rows
…
